%YAML 1.1
%TAG !u! tag:unity3d.com,2011:
--- !u!1045 &1
EditorBuildSettings:
  m_ObjectHideFlags: 0
  serializedVersion: 2
  m_Scenes:
  - enabled: 1
    path: Assets/Scenes/Main Menu.unity
    guid: 879f057e6f2ea1941ab1fe2c70da41d2
  - enabled: 1
    path: Assets/Scenes/NewsCutscene.unity
    guid: 011abe1ae3ca8c846bfb63828fb629fd
  - enabled: 1
    path: Assets/Scenes/Game.unity
    guid: c89aa5dca5d2057408c1cfee69dbd8e1
  - enabled: 1
    path: Assets/Scenes/Win!.unity
    guid: 8f2252bf81aea64488669cc12e1aaff4
  m_configObjects: {}
